<?xml version="1.0" encoding="UTF-8" standalone="no"?>
<!DOCTYPE svg PUBLIC "-//W3C//DTD SVG 1.1//EN"
 "http://www.w3.org/Graphics/SVG/1.1/DTD/svg11.dtd">
<!-- Generated by graphviz version 7.1.0 (0)
 -->
<!-- Pages: 1 -->
<svg width="3256pt" height="423pt"
 viewBox="0.00 0.00 3256.00 423.00" xmlns="http://www.w3.org/2000/svg" xmlns:xlink="http://www.w3.org/1999/xlink">
<g id="graph0" class="graph" transform="scale(1 1) rotate(0) translate(4 419)">
<polygon fill="white" stroke="none" points="-4,4 -4,-419 3252,-419 3252,4 -4,4"/>
<g id="clust1" class="cluster">
<title>cluster_0</title>
<polygon fill="none" stroke="black" points="8,-8 8,-407 3240,-407 3240,-8 8,-8"/>
</g>
<g id="clust2" class="cluster">
<title>cluster_1</title>
<polygon fill="none" stroke="grey" points="1577,-89 1577,-216 1985,-216 1985,-89 1577,-89"/>
</g>
<g id="clust3" class="cluster">
<title>cluster_2</title>
<polygon fill="none" stroke="grey" points="1396,-251 1396,-376 2000,-376 2000,-251 1396,-251"/>
</g>
<g id="clust4" class="cluster">
<title>cluster_3</title>
<polygon fill="none" stroke="grey" points="820,-251 820,-376 1388,-376 1388,-251 820,-251"/>
</g>
<g id="clust5" class="cluster">
<title>cluster_4</title>
<polygon fill="none" stroke="grey" points="2632,-251 2632,-376 3232,-376 3232,-251 2632,-251"/>
</g>
<g id="clust6" class="cluster">
<title>cluster_5</title>
<polygon fill="none" stroke="grey" points="2008,-251 2008,-376 2624,-376 2624,-251 2008,-251"/>
</g>
<g id="clust7" class="cluster">
<title>cluster_6</title>
<polygon fill="none" stroke="grey" points="250,-251 250,-376 812,-376 812,-251 250,-251"/>
</g>
<g id="clust8" class="cluster">
<title>cluster_7</title>
<polygon fill="none" stroke="grey" points="820,-89 820,-216 1222,-216 1222,-89 820,-89"/>
</g>
<g id="clust9" class="cluster">
<title>cluster_8</title>
<polygon fill="none" stroke="black" points="16,-16 16,-399 242,-399 242,-16 16,-16"/>
<text text-anchor="middle" x="129" y="-383.8" font-family="Times,serif" font-size="14.00">Graph legend</text>
</g>
<!-- 991F6E3F0765CF6295888586139B09DA5BF0D338_David Runge &lt;dvzrv@archlinux.org&gt; -->
<g id="node1" class="node">
<title>991F6E3F0765CF6295888586139B09DA5BF0D338_David Runge &lt;dvzrv@archlinux.org&gt;</title>
<polygon fill="lightgreen" stroke="black" points="1924,-208 1638,-208 1638,-170 1924,-170 1924,-208"/>
<text text-anchor="middle" x="1781" y="-192.8" font-family="Times,serif" font-size="14.00">David Runge &lt;dvzrv@archlinux.org&gt;</text>
<text text-anchor="middle" x="1781" y="-177.8" font-family="Times,serif" font-size="14.00">(500%)</text>
</g>
<!-- 991F6E3F0765CF6295888586139B09DA5BF0D338 -->
<g id="node2" class="node">
<title>991F6E3F0765CF6295888586139B09DA5BF0D338</title>
<polygon fill="lightgrey" stroke="black" points="1976.5,-133 1585.5,-133 1585.5,-97 1976.5,-97 1976.5,-133"/>
<text text-anchor="middle" x="1781" y="-111.3" font-family="Times,serif" font-size="14.00">991F6E3F0765CF6295888586139B09DA5BF0D338</text>
</g>
<!-- 991F6E3F0765CF6295888586139B09DA5BF0D338_David Runge &lt;dvzrv@archlinux.org&gt;&#45;&gt;991F6E3F0765CF6295888586139B09DA5BF0D338 -->
<!-- D8AFDDA07A5B6EDFA7D8CCDAD6D055F927843F1C_Levente Polyak (Arch Linux Master Key) &lt;anthraxx@master&#45;key.archlinux.org&gt; -->
<g id="node3" class="node">
<title>D8AFDDA07A5B6EDFA7D8CCDAD6D055F927843F1C_Levente Polyak (Arch Linux Master Key) &lt;anthraxx@master&#45;key.archlinux.org&gt;</title>
<polygon fill="grey" stroke="black" points="1991.5,-368 1404.5,-368 1404.5,-332 1991.5,-332 1991.5,-368"/>
<text text-anchor="middle" x="1698" y="-346.3" font-family="Times,serif" font-size="14.00">Levente Polyak (Arch Linux Master Key) &lt;anthraxx@master&#45;key.archlinux.org&gt;</text>
</g>
<!-- D8AFDDA07A5B6EDFA7D8CCDAD6D055F927843F1C -->
<g id="node4" class="node">
<title>D8AFDDA07A5B6EDFA7D8CCDAD6D055F927843F1C</title>
<polygon fill="#9f79ee" stroke="black" points="1901.5,-295 1494.5,-295 1494.5,-259 1901.5,-259 1901.5,-295"/>
<text text-anchor="middle" x="1698" y="-273.3" font-family="Times,serif" font-size="14.00">D8AFDDA07A5B6EDFA7D8CCDAD6D055F927843F1C</text>
</g>
<!-- D8AFDDA07A5B6EDFA7D8CCDAD6D055F927843F1C_Levente Polyak (Arch Linux Master Key) &lt;anthraxx@master&#45;key.archlinux.org&gt;&#45;&gt;D8AFDDA07A5B6EDFA7D8CCDAD6D055F927843F1C -->
<!-- D8AFDDA07A5B6EDFA7D8CCDAD6D055F927843F1C&#45;&gt;991F6E3F0765CF6295888586139B09DA5BF0D338_David Runge &lt;dvzrv@archlinux.org&gt; -->
<g id="edge8" class="edge">
<title>D8AFDDA07A5B6EDFA7D8CCDAD6D055F927843F1C&#45;&gt;991F6E3F0765CF6295888586139B09DA5BF0D338_David Runge &lt;dvzrv@archlinux.org&gt;</title>
<path fill="none" stroke="black" d="M1736.9,-258.69C1744.94,-253.82 1752.82,-247.92 1759,-241 1764.67,-234.64 1769.05,-226.6 1772.35,-218.79"/>
<polygon fill="black" stroke="black" points="1775.59,-220.12 1775.8,-209.52 1769.03,-217.68 1775.59,-220.12"/>
<text text-anchor="middle" x="1851.5" y="-229.8" font-family="Times,serif" font-size="14.00">certified on 2022&#45;08&#45;02</text>
<polyline fill="none" stroke="black" points="1935,-226 1768,-226 1772.35,-218.8"/>
</g>
<!-- C7E7849466FE2358343588377258734B41C31549_David Runge &lt;dvzrv@archlinux.org&gt; -->
<g id="node13" class="node">
<title>C7E7849466FE2358343588377258734B41C31549_David Runge &lt;dvzrv@archlinux.org&gt;</title>
<polygon fill="#ee6363" stroke="black" points="1164,-208 878,-208 878,-170 1164,-170 1164,-208"/>
<text text-anchor="middle" x="1021" y="-192.8" font-family="Times,serif" font-size="14.00">David Runge &lt;dvzrv@archlinux.org&gt;</text>
<text text-anchor="middle" x="1021" y="-177.8" font-family="Times,serif" font-size="14.00">(300%)</text>
</g>
<!-- D8AFDDA07A5B6EDFA7D8CCDAD6D055F927843F1C&#45;&gt;C7E7849466FE2358343588377258734B41C31549_David Runge &lt;dvzrv@archlinux.org&gt; -->
<g id="edge13" class="edge">
<title>D8AFDDA07A5B6EDFA7D8CCDAD6D055F927843F1C&#45;&gt;C7E7849466FE2358343588377258734B41C31549_David Runge &lt;dvzrv@archlinux.org&gt;</title>
<path fill="none" stroke="black" d="M1629.83,-258.53C1615.62,-253.74 1601.01,-247.91 1588,-241 1578.5,-235.95 1579.04,-229.86 1569,-226 1499.75,-199.38 1312.18,-191.82 1175.74,-189.99"/>
<polygon fill="black" stroke="black" points="1175.91,-186.49 1165.87,-189.86 1175.82,-193.49 1175.91,-186.49"/>
<text text-anchor="middle" x="1671.5" y="-229.8" font-family="Times,serif" font-size="14.00">certified on 2019&#45;10&#45;17</text>
<polyline fill="none" stroke="black" points="1755,-226 1588,-226 1629.83,-258.53"/>
</g>
<!-- 91FFE0700E80619CEB73235CA88E23E377514E00_Florian Pritz (Arch Linux Master Key) &lt;florian@master&#45;key.archlinux.org&gt; -->
<g id="node5" class="node">
<title>91FFE0700E80619CEB73235CA88E23E377514E00_Florian Pritz (Arch Linux Master Key) &lt;florian@master&#45;key.archlinux.org&gt;</title>
<polygon fill="grey" stroke="black" points="1379.5,-368 828.5,-368 828.5,-332 1379.5,-332 1379.5,-368"/>
<text text-anchor="middle" x="1104" y="-346.3" font-family="Times,serif" font-size="14.00">Florian Pritz (Arch Linux Master Key) &lt;florian@master&#45;key.archlinux.org&gt;</text>
</g>
<!-- 91FFE0700E80619CEB73235CA88E23E377514E00 -->
<g id="node6" class="node">
<title>91FFE0700E80619CEB73235CA88E23E377514E00</title>
<polygon fill="#9f79ee" stroke="black" points="1300,-295 908,-295 908,-259 1300,-259 1300,-295"/>
<text text-anchor="middle" x="1104" y="-273.3" font-family="Times,serif" font-size="14.00">91FFE0700E80619CEB73235CA88E23E377514E00</text>
</g>
<!-- 91FFE0700E80619CEB73235CA88E23E377514E00_Florian Pritz (Arch Linux Master Key) &lt;florian@master&#45;key.archlinux.org&gt;&#45;&gt;91FFE0700E80619CEB73235CA88E23E377514E00 -->
<!-- 91FFE0700E80619CEB73235CA88E23E377514E00&#45;&gt;991F6E3F0765CF6295888586139B09DA5BF0D338_David Runge &lt;dvzrv@archlinux.org&gt; -->
<g id="edge9" class="edge">
<title>91FFE0700E80619CEB73235CA88E23E377514E00&#45;&gt;991F6E3F0765CF6295888586139B09DA5BF0D338_David Runge &lt;dvzrv@archlinux.org&gt;</title>
<path fill="none" stroke="black" d="M1300.42,-262.04C1327.29,-256.96 1354.15,-250.13 1379,-241 1390.45,-236.79 1390.48,-230.03 1402,-226 1442.72,-211.77 1540.45,-202.69 1626.46,-197.21"/>
<polygon fill="black" stroke="black" points="1626.42,-200.72 1636.19,-196.6 1625.99,-193.73 1626.42,-200.72"/>
<text text-anchor="middle" x="1485.5" y="-229.8" font-family="Times,serif" font-size="14.00">certified on 2022&#45;06&#45;05</text>
<polyline fill="none" stroke="black" points="1569,-226 1402,-226 1481.97,-210.21"/>
</g>
<!-- 91FFE0700E80619CEB73235CA88E23E377514E00&#45;&gt;C7E7849466FE2358343588377258734B41C31549_David Runge &lt;dvzrv@archlinux.org&gt; -->
<g id="edge14" class="edge">
<title>91FFE0700E80619CEB73235CA88E23E377514E00&#45;&gt;C7E7849466FE2358343588377258734B41C31549_David Runge &lt;dvzrv@archlinux.org&gt;</title>
<path fill="none" stroke="black" d="M1041.33,-258.69C1033.74,-254.11 1026.93,-248.31 1022,-241 1017.84,-234.83 1016.3,-227.22 1016.11,-219.78"/>
<polygon fill="black" stroke="black" points="1019.6,-220.14 1016.66,-209.96 1012.61,-219.75 1019.6,-220.14"/>
<text text-anchor="middle" x="1105.5" y="-229.8" font-family="Times,serif" font-size="14.00">certified on 2019&#45;10&#45;06</text>
<polyline fill="none" stroke="black" points="1189,-226 1022,-226 1041.33,-258.69"/>
</g>
<!-- 75BD80E4D834509F6E740257B1B73B02CC52A02A_Jonas Witschel (Arch Linux Master Key) &lt;diabonas@master&#45;key.archlinux.org&gt; -->
<g id="node7" class="node">
<title>75BD80E4D834509F6E740257B1B73B02CC52A02A_Jonas Witschel (Arch Linux Master Key) &lt;diabonas@master&#45;key.archlinux.org&gt;</title>
<polygon fill="grey" stroke="black" points="3223.5,-368 2640.5,-368 2640.5,-332 3223.5,-332 3223.5,-368"/>
<text text-anchor="middle" x="2932" y="-346.3" font-family="Times,serif" font-size="14.00">Jonas Witschel (Arch Linux Master Key) &lt;diabonas@master&#45;key.archlinux.org&gt;</text>
</g>
<!-- 75BD80E4D834509F6E740257B1B73B02CC52A02A -->
<g id="node8" class="node">
<title>75BD80E4D834509F6E740257B1B73B02CC52A02A</title>
<polygon fill="#9f79ee" stroke="black" points="3082.5,-295 2687.5,-295 2687.5,-259 3082.5,-259 3082.5,-295"/>
<text text-anchor="middle" x="2885" y="-273.3" font-family="Times,serif" font-size="14.00">75BD80E4D834509F6E740257B1B73B02CC52A02A</text>
</g>
<!-- 75BD80E4D834509F6E740257B1B73B02CC52A02A_Jonas Witschel (Arch Linux Master Key) &lt;diabonas@master&#45;key.archlinux.org&gt;&#45;&gt;75BD80E4D834509F6E740257B1B73B02CC52A02A -->
<!-- 75BD80E4D834509F6E740257B1B73B02CC52A02A&#45;&gt;991F6E3F0765CF6295888586139B09DA5BF0D338_David Runge &lt;dvzrv@archlinux.org&gt; -->
<g id="edge10" class="edge">
<title>75BD80E4D834509F6E740257B1B73B02CC52A02A&#45;&gt;991F6E3F0765CF6295888586139B09DA5BF0D338_David Runge &lt;dvzrv@archlinux.org&gt;</title>
<path fill="none" stroke="black" d="M2711.56,-258.53C2683.63,-255.89 2655.02,-253.29 2628,-251 2386.26,-230.54 2105.34,-211.18 1935.48,-199.96"/>
<polygon fill="black" stroke="black" points="1935.93,-196.48 1925.72,-199.31 1935.46,-203.46 1935.93,-196.48"/>
<text text-anchor="middle" x="2572.5" y="-229.8" font-family="Times,serif" font-size="14.00">certified on 2022&#45;07&#45;09</text>
<polyline fill="none" stroke="black" points="2656,-226 2489,-226 2571.42,-246.29"/>
</g>
<!-- 69E6471E3AE065297529832E6BA0F5A2037F4F41_Johannes Löthberg (Arch Linux Master Key) &lt;demize@master&#45;key.archlinux.org&gt; -->
<g id="node9" class="node">
<title>69E6471E3AE065297529832E6BA0F5A2037F4F41_Johannes Löthberg (Arch Linux Master Key) &lt;demize@master&#45;key.archlinux.org&gt;</title>
<polygon fill="grey" stroke="black" points="2616,-368 2016,-368 2016,-332 2616,-332 2616,-368"/>
<text text-anchor="middle" x="2316" y="-346.3" font-family="Times,serif" font-size="14.00">Johannes Löthberg (Arch Linux Master Key) &lt;demize@master&#45;key.archlinux.org&gt;</text>
</g>
<!-- 69E6471E3AE065297529832E6BA0F5A2037F4F41 -->
<g id="node10" class="node">
<title>69E6471E3AE065297529832E6BA0F5A2037F4F41</title>
<polygon fill="#9f79ee" stroke="black" points="2457.5,-295 2068.5,-295 2068.5,-259 2457.5,-259 2457.5,-295"/>
<text text-anchor="middle" x="2263" y="-273.3" font-family="Times,serif" font-size="14.00">69E6471E3AE065297529832E6BA0F5A2037F4F41</text>
</g>
<!-- 69E6471E3AE065297529832E6BA0F5A2037F4F41_Johannes Löthberg (Arch Linux Master Key) &lt;demize@master&#45;key.archlinux.org&gt;&#45;&gt;69E6471E3AE065297529832E6BA0F5A2037F4F41 -->
<!-- 69E6471E3AE065297529832E6BA0F5A2037F4F41&#45;&gt;991F6E3F0765CF6295888586139B09DA5BF0D338_David Runge &lt;dvzrv@archlinux.org&gt; -->
<g id="edge11" class="edge">
<title>69E6471E3AE065297529832E6BA0F5A2037F4F41&#45;&gt;991F6E3F0765CF6295888586139B09DA5BF0D338_David Runge &lt;dvzrv@archlinux.org&gt;</title>
<path fill="none" stroke="black" d="M2165.17,-258.54C2087.17,-244.63 1977.78,-225.11 1895.67,-210.46"/>
<polygon fill="black" stroke="black" points="1896.47,-207.05 1886.01,-208.74 1895.24,-213.94 1896.47,-207.05"/>
<text text-anchor="middle" x="2148.5" y="-229.8" font-family="Times,serif" font-size="14.00">certified on 2022&#45;11&#45;29</text>
<polyline fill="none" stroke="black" points="2232,-226 2065,-226 2144.89,-254.93"/>
</g>
<!-- 2AC0A42EFB0B5CBC7A0402ED4DC95B6D7BE9892E_David Runge (Arch Linux Master Key) &lt;dvzrv@master&#45;key.archlinux.org&gt; -->
<g id="node11" class="node">
<title>2AC0A42EFB0B5CBC7A0402ED4DC95B6D7BE9892E_David Runge (Arch Linux Master Key) &lt;dvzrv@master&#45;key.archlinux.org&gt;</title>
<polygon fill="grey" stroke="black" points="804,-368 258,-368 258,-332 804,-332 804,-368"/>
<text text-anchor="middle" x="531" y="-346.3" font-family="Times,serif" font-size="14.00">David Runge (Arch Linux Master Key) &lt;dvzrv@master&#45;key.archlinux.org&gt;</text>
</g>
<!-- 2AC0A42EFB0B5CBC7A0402ED4DC95B6D7BE9892E -->
<g id="node12" class="node">
<title>2AC0A42EFB0B5CBC7A0402ED4DC95B6D7BE9892E</title>
<polygon fill="#9f79ee" stroke="black" points="804,-295 398,-295 398,-259 804,-259 804,-295"/>
<text text-anchor="middle" x="601" y="-273.3" font-family="Times,serif" font-size="14.00">2AC0A42EFB0B5CBC7A0402ED4DC95B6D7BE9892E</text>
</g>
<!-- 2AC0A42EFB0B5CBC7A0402ED4DC95B6D7BE9892E_David Runge (Arch Linux Master Key) &lt;dvzrv@master&#45;key.archlinux.org&gt;&#45;&gt;2AC0A42EFB0B5CBC7A0402ED4DC95B6D7BE9892E -->
<!-- 2AC0A42EFB0B5CBC7A0402ED4DC95B6D7BE9892E&#45;&gt;991F6E3F0765CF6295888586139B09DA5BF0D338_David Runge &lt;dvzrv@archlinux.org&gt; -->
<g id="edge12" class="edge">
<title>2AC0A42EFB0B5CBC7A0402ED4DC95B6D7BE9892E&#45;&gt;991F6E3F0765CF6295888586139B09DA5BF0D338_David Runge &lt;dvzrv@archlinux.org&gt;</title>
<path fill="none" stroke="black" d="M735.3,-258.52C762,-255.57 789.86,-252.87 816,-251 857.35,-248.05 1150.02,-255.12 1189,-241 1199.12,-237.34 1197.95,-229.85 1208,-226 1281.64,-197.82 1483.12,-190.72 1626.29,-189.41"/>
<polygon fill="black" stroke="black" points="1626.31,-192.91 1636.28,-189.33 1626.25,-185.91 1626.31,-192.91"/>
<text text-anchor="middle" x="1291.5" y="-229.8" font-family="Times,serif" font-size="14.00">certified on 2022&#45;05&#45;19</text>
<polyline fill="none" stroke="black" points="1375,-226 1208,-226 1284.25,-208.58"/>
</g>
<!-- 2AC0A42EFB0B5CBC7A0402ED4DC95B6D7BE9892E&#45;&gt;C7E7849466FE2358343588377258734B41C31549_David Runge &lt;dvzrv@archlinux.org&gt; -->
<g id="edge15" class="edge">
<title>2AC0A42EFB0B5CBC7A0402ED4DC95B6D7BE9892E&#45;&gt;C7E7849466FE2358343588377258734B41C31549_David Runge &lt;dvzrv@archlinux.org&gt;</title>
<path fill="none" stroke="black" d="M686.25,-258.52C733.11,-248.92 792.26,-236.8 845,-226 869.11,-221.06 895.08,-215.75 919.47,-210.76"/>
<polygon fill="black" stroke="black" points="919.98,-214.23 929.08,-208.8 918.58,-207.37 919.98,-214.23"/>
<text text-anchor="middle" x="928.5" y="-229.8" font-family="Times,serif" font-size="14.00">certified on 2021&#45;06&#45;05</text>
<polyline fill="none" stroke="black" points="1012,-226 845,-226 919.44,-210.77"/>
</g>
<!-- C7E7849466FE2358343588377258734B41C31549 -->
<g id="node14" class="node">
<title>C7E7849466FE2358343588377258734B41C31549</title>
<polygon fill="lightgrey" stroke="black" points="1213.5,-133 828.5,-133 828.5,-97 1213.5,-97 1213.5,-133"/>
<text text-anchor="middle" x="1021" y="-111.3" font-family="Times,serif" font-size="14.00">C7E7849466FE2358343588377258734B41C31549</text>
</g>
<!-- C7E7849466FE2358343588377258734B41C31549_David Runge &lt;dvzrv@archlinux.org&gt;&#45;&gt;C7E7849466FE2358343588377258734B41C31549 -->
<!-- Trust root -->
<g id="node15" class="node">
<title>Trust root</title>
<polygon fill="#9f79ee" stroke="black" points="167.5,-368 84.5,-368 84.5,-332 173.5,-332 173.5,-362 167.5,-368"/>
<polyline fill="none" stroke="black" points="167.5,-368 167.5,-362"/>
<polyline fill="none" stroke="black" points="173.5,-362 167.5,-362"/>
<text text-anchor="middle" x="129" y="-346.3" font-family="Times,serif" font-size="14.00">Trust root</text>
</g>
<!-- Intermediate introducer -->
<g id="node16" class="node">
<title>Intermediate introducer</title>
<polygon fill="grey" stroke="black" points="217.5,-295 34.5,-295 34.5,-259 223.5,-259 223.5,-289 217.5,-295"/>
<polyline fill="none" stroke="black" points="217.5,-295 217.5,-289"/>
<polyline fill="none" stroke="black" points="223.5,-289 217.5,-289"/>
<text text-anchor="middle" x="129" y="-273.3" font-family="Times,serif" font-size="14.00">Intermediate introducer</text>
</g>
<!-- Trust root&#45;&gt;Intermediate introducer -->
<!-- Authenticated target -->
<g id="node17" class="node">
<title>Authenticated target</title>
<polygon fill="lightgreen" stroke="black" points="206,-207 46,-207 46,-171 212,-171 212,-201 206,-207"/>
<polyline fill="none" stroke="black" points="206,-207 206,-201"/>
<polyline fill="none" stroke="black" points="212,-201 206,-201"/>
<text text-anchor="middle" x="129" y="-185.3" font-family="Times,serif" font-size="14.00">Authenticated target</text>
</g>
<!-- Intermediate introducer&#45;&gt;Authenticated target -->
<!-- Unauthenticated target -->
<g id="node18" class="node">
<title>Unauthenticated target</title>
<polygon fill="#ee6363" stroke="black" points="215.5,-133 36.5,-133 36.5,-97 221.5,-97 221.5,-127 215.5,-133"/>
<polyline fill="none" stroke="black" points="215.5,-133 215.5,-127"/>
<polyline fill="none" stroke="black" points="221.5,-127 215.5,-127"/>
<text text-anchor="middle" x="129" y="-111.3" font-family="Times,serif" font-size="14.00">Unauthenticated target</text>
</g>
<!-- Authenticated target&#45;&gt;Unauthenticated target -->
<!-- target trust amount: 416% -->
<g id="node19" class="node">
<title>target trust amount: 416%</title>
<polygon fill="white" stroke="black" points="227.5,-60 24.5,-60 24.5,-24 233.5,-24 233.5,-54 227.5,-60"/>
<polyline fill="none" stroke="black" points="227.5,-60 227.5,-54"/>
<polyline fill="none" stroke="black" points="233.5,-54 227.5,-54"/>
<text text-anchor="middle" x="129" y="-38.3" font-family="Times,serif" font-size="14.00">target trust amount: 416%</text>
</g>
<!-- Unauthenticated target&#45;&gt;target trust amount: 416% -->
</g>
</svg>
